<?xml version="1.0" encoding="UTF-8"?>
<svg width="171px" height="171px" viewBox="0 0 171 171" version="1.1" xmlns="http://www.w3.org/2000/svg" xmlns:xlink="http://www.w3.org/1999/xlink">
    <!-- Generator: Sketch 62 (91390) - https://sketch.com -->
    <title>spotify</title>
    <desc>Created with Sketch.</desc>
    <g id="spotify" stroke="none" stroke-width="1" fill="none" fill-rule="evenodd">
        <path d="M134.562,76.477 C107.568,60.446 63.042,58.972 37.273,66.793 C33.134,68.049 28.758,65.712 27.504,61.574 C26.25,57.434 28.584,53.061 32.725,51.803 C62.306,42.824 111.481,44.558 142.557,63.005 C146.279,65.215 147.5,70.022 145.294,73.738 C143.086,77.46 138.275,78.687 134.562,76.477 Z M133.678,100.221 C131.784,103.294 127.766,104.257 124.697,102.371 C102.192,88.537 67.875,84.53 41.25,92.612 C37.797,93.655 34.151,91.708 33.102,88.262 C32.062,84.809 34.009,81.169 37.456,80.119 C67.871,70.89 105.682,75.36 131.53,91.245 C134.599,93.135 135.565,97.155 133.678,100.221 Z M123.431,123.024 C121.926,125.491 118.713,126.265 116.254,124.761 C96.589,112.742 71.837,110.027 42.687,116.686 C39.878,117.33 37.078,115.569 36.437,112.761 C35.794,109.952 37.548,107.153 40.363,106.512 C72.263,99.219 99.626,102.358 121.699,115.846 C124.16,117.349 124.935,120.564 123.431,123.024 Z M85.025,2.237 C38.776,2.237 1.282,39.729 1.282,85.979 C1.282,132.232 38.776,169.723 85.025,169.723 C131.276,169.723 168.768,132.232 168.768,85.979 C168.768,39.729 131.276,2.237 85.025,2.237 L85.025,2.237 Z" id="Fill-1" fill="#42AF71"></path>
    </g>
</svg>